{
  "type": "mysql",
  "host": "localhost",
  "port": 3306,
  "extra": {
    "socketPath": "/Applications/MAMP/tmp/mysql/mysql.sock"
  },
  "keepConnectionAlive": true,
  "username": "root",
  "password": "root",
  "database": "blog",
  "entities": ["src/**/*.entity{.ts,.js}"],
  "synchronize": true
}
